{
  "fluentMethods": true,
  "clientRootFolder": "",
  "relationships": [
    {
      "relationshipName": "product",
      "otherEntityName": "product",
      "relationshipType": "one-to-many",
      "otherEntityRelationshipName": "categori"
    }
  ],
  "fields": [
    {
      "fieldName": "name",
      "fieldType": "String"
    },
    {
      "fieldName": "description",
      "fieldType": "String"
    }
  ],
  "changelogDate": "20210309141955",
  "dto": "no",
  "searchEngine": false,
  "service": "serviceClass",
  "entityTableName": "categori",
  "databaseType": "sql",
  "readOnly": false,
  "jpaMetamodelFiltering": false,
  "pagination": "infinite-scroll"
}
